<svg width="110" height="83" viewBox="0 0 110 83" fill="none" xmlns="http://www.w3.org/2000/svg">
<path d="M14.513 82.0527L106.716 65.7948C108.439 65.491 109.605 63.8257 109.301 62.1023L99.0343 3.87551C98.7304 2.1521 97.0651 0.98606 95.3417 1.28994L3.13907 17.5478C1.41566 17.8516 0.249619 19.5169 0.553503 21.2403L10.8204 79.4671C11.1243 81.1905 12.7896 82.3565 14.513 82.0527ZM23.6665 76.3769C23.775 76.9924 23.3695 77.5717 22.754 77.6802L14.6293 79.1128C14.0138 79.2213 13.4346 78.8157 13.326 78.2002L12.5012 73.5224C12.3927 72.9069 12.7983 72.3277 13.4138 72.2191L21.5384 70.7865C22.1539 70.678 22.7332 71.0836 22.8417 71.6991L23.6665 76.3769ZM21.3657 63.3282C21.4742 63.9437 21.0686 64.523 20.4531 64.6315L12.3285 66.0641C11.713 66.1726 11.1337 65.767 11.0252 65.1515L10.2004 60.4737C10.0918 59.8582 10.4974 59.279 11.1129 59.1704L19.2376 57.7378C19.8531 57.6293 20.4323 58.0349 20.5408 58.6504L21.3657 63.3282ZM19.0648 50.2795C19.1734 50.895 18.7678 51.4743 18.1523 51.5828L10.0276 53.0154C9.41211 53.1239 8.83289 52.7183 8.72436 52.1028L7.89953 47.425C7.791 46.8095 8.19658 46.2303 8.81208 46.1217L16.9367 44.6891C17.5523 44.5806 18.1315 44.9862 18.24 45.6017L19.0648 50.2795ZM16.7749 37.2924C16.8834 37.9079 16.4778 38.4871 15.8623 38.5956L7.73763 40.0282C7.12213 40.1368 6.5429 39.7312 6.43437 39.1157L5.60954 34.4379C5.50101 33.8224 5.90659 33.2431 6.5221 33.1346L14.6468 31.702C15.2623 31.5935 15.8415 31.999 15.95 32.6146L16.7749 37.2924ZM14.474 24.2437C14.5825 24.8592 14.177 25.4384 13.5615 25.5469L5.4368 26.9795C4.82129 27.0881 4.24206 26.6825 4.13353 26.067L3.3087 21.3892C3.20017 20.7737 3.60575 20.1944 4.22126 20.0859L12.3459 18.6533C12.9614 18.5448 13.5407 18.9503 13.6492 19.5659L14.474 24.2437ZM106.39 61.7905C106.499 62.406 106.093 62.9852 105.478 63.0937L97.3531 64.5263C96.7376 64.6349 96.1584 64.2293 96.0499 63.6138L95.2251 58.936C95.1165 58.3205 95.5221 57.7412 96.1376 57.6327L104.262 56.2001C104.878 56.0916 105.457 56.4972 105.566 57.1127L106.39 61.7905ZM104.09 48.7418C104.198 49.3573 103.792 49.9365 103.177 50.0451L95.0523 51.4777C94.4368 51.5862 93.8576 51.1806 93.749 50.5651L92.9242 45.8873C92.8157 45.2718 93.2213 44.6925 93.8368 44.584L101.961 43.1514C102.577 43.0429 103.156 43.4484 103.265 44.064L104.09 48.7418ZM101.789 35.6931C101.897 36.3086 101.492 36.8878 100.876 36.9964L92.7515 38.4289C92.136 38.5375 91.5567 38.1319 91.4482 37.5164L90.6234 32.8386C90.5148 32.2231 90.9204 31.6438 91.5359 31.5353L99.6606 30.1027C100.276 29.9942 100.855 30.3998 100.964 31.0153L101.789 35.6931ZM99.4987 22.7059C99.6072 23.3214 99.2017 23.9007 98.5861 24.0092L90.4615 25.4418C89.846 25.5503 89.2668 25.1448 89.1582 24.5292L88.3334 19.8514C88.2249 19.2359 88.6304 18.6567 89.2459 18.5481L97.3706 17.1155C97.9861 17.007 98.5653 17.4126 98.6739 18.0281L99.4987 22.7059ZM97.1979 9.65724C97.3064 10.2727 96.9008 10.852 96.2853 10.9605L88.1606 12.3931C87.5451 12.5016 86.9659 12.096 86.8574 11.4805L86.0326 6.80271C85.924 6.1872 86.3296 5.60798 86.9451 5.49945L95.0698 4.06685C95.6853 3.95832 96.2645 4.3639 96.373 4.9794L97.1979 9.65724Z" fill="#FCED78"/>
<path d="M53.5226 18.39L45.5964 21.2749C45.1604 21.4336 44.9336 21.9201 45.0922 22.356C45.2509 22.792 45.7374 23.0188 46.1734 22.8602L54.0995 19.9753C54.5355 19.8166 54.7623 19.3301 54.6037 18.8942C54.445 18.4582 53.9585 18.2314 53.5226 18.39ZM65.2821 63.0302C66.8119 62.4734 67.6034 60.776 67.0466 59.2463C66.4898 57.7165 64.7925 56.9251 63.2627 57.4818C61.733 58.0386 60.9415 59.736 61.4983 61.2657C62.055 62.7955 63.7524 63.587 65.2821 63.0302ZM63.5512 58.2745C64.645 57.8763 65.8559 58.441 66.254 59.5348C66.6521 60.6286 66.0875 61.8394 64.9936 62.2376C63.8998 62.6357 62.689 62.071 62.2909 60.9772C61.8928 59.8834 62.4574 58.6726 63.5512 58.2745ZM56.1434 10.7937L38.7058 17.1405C35.036 18.4762 33.1355 22.552 34.4712 26.2218L48.8956 65.8527C50.2313 69.5225 54.3071 71.4231 57.9769 70.0874L75.4145 63.7406C79.0844 62.4049 80.9849 58.3291 79.6492 54.6593L65.2247 15.0284C63.889 11.3586 59.8133 9.45803 56.1434 10.7937ZM76.9543 55.6402C77.7505 57.8278 76.6213 60.2495 74.4337 61.0457L56.9961 67.3925C54.8084 68.1887 52.3868 67.0595 51.5905 64.8718L50.1481 60.9087L75.5119 51.6771L76.9543 55.6402ZM74.9349 50.0919L49.5711 59.3235L39.1855 30.7893L64.5493 21.5576L74.9349 50.0919ZM63.9723 19.9724L38.6085 29.204L37.1661 25.2409C36.3698 23.0533 37.4991 20.6316 39.6867 19.8354L57.1243 13.4886C59.3119 12.6924 61.7336 13.8217 62.5298 16.0093L63.9723 19.9724ZM55.3633 48.5533C55.6121 49.0642 56.2478 49.2816 56.7557 49.0249L57.8272 48.4913L58.2735 49.397C58.7429 50.3661 59.2502 50.2802 59.7215 50.0459C59.9794 49.9161 60.86 49.7213 60.4756 48.9366L59.7885 47.5172L60.968 46.9352C61.4788 46.6865 61.6963 46.0508 61.4396 45.5428C61.1908 45.032 60.5551 44.8145 60.0472 45.0712L58.8835 45.6474L58.3802 44.6098C59.2203 44.2053 60.7687 43.2557 61.4335 42.0982C62.4758 40.3006 62.3395 37.7561 61.0675 35.1492C58.9411 30.7618 54.63 30.0151 51.2197 31.6692C50.5402 31.9973 49.9249 32.329 50.5328 33.5798L56.9143 46.6244L55.8349 47.1609C55.3241 47.4096 55.1117 48.0345 55.3633 48.5533ZM52.629 33.149C53.5455 32.7077 56.9179 31.9111 59.3046 36.841C60.1389 38.566 60.8006 41.5925 57.4747 43.207C55.9193 39.9941 54.5096 37.0334 52.9542 33.8205C52.8525 33.6152 52.7235 33.4826 52.6471 33.3219C52.6218 33.2773 52.6254 33.2131 52.629 33.149Z" fill="#023F85"/>
</svg>
