<svg width="40" height="40" viewBox="0 0 40 40" fill="none" xmlns="http://www.w3.org/2000/svg">
<path fill-rule="evenodd" clip-rule="evenodd" d="M20 40C31.0457 40 40 31.0457 40 20C40 8.95431 31.0457 0 20 0C8.95431 0 0 8.95431 0 20C0 31.0457 8.95431 40 20 40Z" fill="#FCED78"/>
<path d="M20.1687 8.45639L16.1077 9.17246C15.8843 9.21185 15.7338 9.42682 15.7732 9.65018C15.8126 9.87354 16.0275 10.0241 16.2509 9.98468L20.312 9.2686C20.5353 9.22922 20.6858 9.01425 20.6465 8.79089C20.6071 8.56753 20.3921 8.41701 20.1687 8.45639ZM22.0408 30.9472C22.8246 30.809 23.3498 30.059 23.2116 29.2752C23.0734 28.4914 22.3234 27.9663 21.5396 28.1045C20.7558 28.2427 20.2306 28.9927 20.3688 29.7765C20.507 30.5603 21.257 31.0854 22.0408 30.9472ZM21.6112 28.5106C22.1716 28.4118 22.7066 28.7864 22.8055 29.3468C22.9043 29.9073 22.5296 30.4423 21.9692 30.5411C21.4088 30.6399 20.8738 30.2653 20.7749 29.7049C20.6761 29.1444 21.0508 28.6094 21.6112 28.5106ZM22.0755 5.02156L13.1412 6.59692C11.2609 6.92847 9.99982 8.72945 10.3314 10.6097L13.9117 30.915C14.2433 32.7953 16.0443 34.0564 17.9245 33.7248L26.8589 32.1495C28.7391 31.8179 30.0002 30.0169 29.6687 28.1367L26.0883 7.83135C25.7567 5.95108 23.9558 4.69001 22.0755 5.02156ZM28.2879 28.3801C28.4855 29.501 27.7363 30.5711 26.6154 30.7687L17.6811 32.3441C16.5602 32.5417 15.4901 31.7924 15.2925 30.6716L14.9345 28.641L27.9299 26.3496L28.2879 28.3801ZM27.7866 25.5374L14.7912 27.8288L12.2134 13.209L25.2088 10.9176L27.7866 25.5374ZM25.0656 10.1053L12.0702 12.3968L11.7121 10.3663C11.5145 9.2454 12.2638 8.17532 13.3846 7.97768L22.319 6.40232C23.4398 6.20468 24.5099 6.95396 24.7075 8.07481L25.0656 10.1053ZM18.4943 23.1351C18.5707 23.4022 18.8583 23.5608 19.1247 23.4804L19.6858 23.3144L19.8238 23.7884C19.9676 24.2948 20.2191 24.2965 20.4659 24.2237C20.6011 24.1831 21.0416 24.1641 20.9232 23.7537L20.7128 23.0119L21.3301 22.8319C21.5972 22.7555 21.7558 22.4679 21.6754 22.2015C21.599 21.9344 21.3114 21.7758 21.045 21.8563L20.4358 22.0349L20.2816 21.4926C20.7204 21.3691 21.5465 21.0434 21.9649 20.5425C22.6193 19.7656 22.7697 18.5289 22.3786 17.1658C21.7273 14.8729 19.715 14.1474 17.9327 14.6543C17.5777 14.7546 17.2533 14.862 17.4398 15.5159L19.4048 22.3381L18.8396 22.5047C18.5725 22.5812 18.4172 22.864 18.4943 23.1351ZM18.4856 15.4864C18.9643 15.3517 20.6556 15.2545 21.3862 17.8307C21.6414 18.732 21.7031 20.2453 19.9647 20.7403C19.4886 19.0614 19.0612 17.5162 18.5851 15.8373C18.5536 15.7298 18.5027 15.6551 18.4796 15.5712C18.4712 15.5476 18.4784 15.517 18.4856 15.4864Z" fill="#023F85"/>
</svg>
